<?xml version="1.0" encoding="utf-8"?>
<!-- Generator: Adobe Illustrator 16.0.0, SVG Export Plug-In . SVG Version: 6.00 Build 0)  -->
<!DOCTYPE svg PUBLIC "-//W3C//DTD SVG 1.1//EN" "http://www.w3.org/Graphics/SVG/1.1/DTD/svg11.dtd">
<svg version="1.1" id="Layer_1" xmlns="http://www.w3.org/2000/svg" xmlns:xlink="http://www.w3.org/1999/xlink" x="0px" y="0px"
	 width="380px" height="380px" viewBox="0 0 380 380" enable-background="new 0 0 380 380" xml:space="preserve">
<rect x="0" fill="#C97B06" width="380" height="380"/>
<path fill="none" d="M458.962,429.81c-0.001-0.01-0.001-0.021-0.002-0.029c0.001,0.013,0.002,0.024,0.002,0.038
	C458.962,429.815,458.962,429.812,458.962,429.81z"/>
<path d="M458.99,430.297c-0.003-0.058-0.012-0.208-0.026-0.487c0,0.003,0,0.006,0,0.009
	C458.976,430.047,458.986,430.231,458.99,430.297z"/>
<path d="M458.96,429.78c0.001,0.01,0.001,0.021,0.002,0.029C458.819,427.261,458.907,428.842,458.96,429.78z"/>
<path opacity="0.1" fill="#010002" enable-background="new    " d="M380,283.198c-0.95-1.25-1.929-2.49-2.923-3.729
	c-11.587-17.283-24.604-34.505-37.621-50.74c-11.618-17.271-24.596-34.504-37.623-50.741
	c-11.604-17.272-24.584-34.537-37.629-50.749c-5.585-8.312-11.825-16.649-18.125-24.435c-5.371-7.955-11.373-17.603-18.573-24
	c-6.166-5.478-14.398-8.742-22.149-11.254c-8.189-2.654-18.437-6.062-27.105-4.403c-16.537,3.165-32.398,20.375-32.814,37.251
	c-0.229,9.219,3.242,18.42-0.455,27.175c-3.264,7.729,3.568,17.422,5.414,24.799c4.548,18.178,17.587,32.207,28.445,46.955
	c-4.302-1.612-8.133-4.07-11.784-6.824c-1.849-1.394-3.656-2.839-5.509-4.229c-1.779,1.479-3.459,3.07-5.23,4.558
	c-7.868,6.615-18.309,10.523-27.95,13.727c-7.771,2.58-15.146,5.01-20.7,11.396c-6.481,7.449-8.982,18.137-11.276,27.494
	c-2.473,10.088-4.015,20.38-5.116,30.699c-0.883,8.283-4.279,20.754,3.079,27.094c4.295,9.049,13.587,15.674,18.162,24.593
	c2.287,4.431,6.729,7.748,9.029,12.179c2.154,4.17,6.881,10.911,10.434,13.973c4.036,8.504,12.446,14.892,17.279,23.016H380V283.198
	z"/>
<g>
	<g>
		<path fill="#FFFFFF" d="M90,288.53c0.425-3.794,0.868-7.587,1.271-11.382c1.751-16.416,4.595-32.569,10.48-48.106
			c3.977-10.495,11.399-16.765,21.976-20.007c10.083-3.09,19.965-6.838,28.94-12.486c3.194-2.011,5.899-4.8,8.878-7.274
			c3.014,2.261,6.064,4.796,9.354,6.972c11.609,7.683,23.66,8.117,35.864,1.558c3.346-1.8,6.439-4.121,9.459-6.447
			c1.333-1.026,2.194-0.907,3.408-0.062c3.011,2.099,5.902,4.474,9.161,6.089c5.157,2.555,10.561,4.615,15.887,6.816
			c6.271,2.592,12.626,4.979,18.841,7.691c7.748,3.385,11.952,9.931,14.851,17.5c6.016,15.715,8.845,32.117,10.5,48.771
			c0.398,4.027,0.843,8.053,1.069,12.092c0.129,2.294,0.053,4.639-0.278,6.908c-0.432,2.952-1.681,5.139-4.905,6.414
			c-10.309,4.072-20.891,7.146-31.666,9.615c-14.879,3.408-29.932,5.772-45.137,7.088c-6.322,0.546-12.678,1.189-19.002,1.074
			c-7.428-0.137-14.854-0.905-22.252-1.659c-15.758-1.605-31.382-4.183-46.689-8.212c-8.84-2.327-17.43-5.619-26.083-8.616
			c-1.007-0.349-1.969-1.454-2.483-2.449c-0.713-1.383-0.983-2.994-1.442-4.507C90,293.45,90,290.99,90,288.53z"/>
		<path fill="#FFFFFF" d="M238.588,106.502c-0.801,4.977-1.499,9.974-2.449,14.922c-0.426,2.219-0.502,4.139,0.69,6.222
			c1.617,2.825,0.832,5.969,0.185,8.901c-0.895,4.049-1.614,8.122-4.22,11.696c-1.311,1.797-1.321,4.517-2.02,6.79
			c-4.479,14.593-12.609,26.523-25.686,34.736c-10.372,6.516-21.973,5.982-31.844-1.343c-12.644-9.384-20.035-22.056-23.377-37.295
			c-0.357-1.627-1.401-3.091-1.94-4.693c-1.143-3.396-2.302-6.8-3.176-10.271c-0.45-1.789-0.521-3.749-0.352-5.594
			c0.124-1.359,0.956-2.644,1.396-3.987c0.467-1.429,1.271-2.915,1.184-4.331c-0.381-6.194-1.279-12.362-1.526-18.558
			c-0.37-9.296,2.854-17.373,9.066-24.327c5.487-6.141,11.989-10.822,19.562-13.975c4.078-1.698,8.477-2.008,12.746-1.28
			c11.795,2.01,23.312,5.209,33.854,10.945c11.749,6.391,17.327,16.728,17.416,30.061c0.004,0.434,0,0.868,0,1.302
			C238.262,106.449,238.425,106.476,238.588,106.502z"/>
	</g>
	<path fill="#F4F4F4" d="M289.941,290.255c-0.228-4.039-0.671-8.063-1.069-12.092c-1.655-16.654-4.484-33.058-10.5-48.772
		c-2.897-7.568-7.103-14.113-14.851-17.498c-6.215-2.715-12.57-5.102-18.841-7.692c-5.326-2.201-10.729-4.263-15.887-6.816
		c-3.259-1.616-6.15-3.991-9.161-6.089c-1.214-0.846-2.075-0.965-3.408,0.062c-3.02,2.326-6.113,4.646-9.459,6.445
		c-5.516,2.965-11,4.486-16.427,4.57v118.986c5.867,0.01,11.755-0.573,17.615-1.08c15.205-1.313,30.258-3.678,45.137-7.088
		c10.774-2.469,21.357-5.541,31.666-9.614c3.226-1.275,4.475-3.462,4.905-6.414C289.993,294.893,290.07,292.549,289.941,290.255z"/>
	<path fill="#F4F4F4" d="M205.09,189.77c13.075-8.213,21.207-20.144,25.686-34.736c0.697-2.272,0.709-4.992,2.02-6.79
		c2.604-3.574,3.325-7.647,4.22-11.696c0.647-2.933,1.435-6.076-0.185-8.901c-1.192-2.083-1.116-4.003-0.69-6.222
		c0.95-4.948,1.648-9.945,2.449-14.922c-0.163-0.026-0.326-0.053-0.49-0.08c0-0.434,0.004-0.868,0-1.302
		c-0.089-13.333-5.667-23.67-17.416-30.061c-9.493-5.165-19.777-8.27-30.343-10.305v129.538
		C195.324,194.244,200.336,192.756,205.09,189.77z"/>
</g>
</svg>
